﻿S.No,TestCase_Name,RequestFile,Status
1,TC_getClaimInfoWithMandatoryFields,getClaimInfosingleAccount,Passed
2,TC_02,getClaimInfoMultipleAccount,Passed
1,TC_geteipcreditlinesummaryWithMandatoryFields,geteipcreditlinesummary,Failed
1,TC_geteipcreditlinesummaryWithMandatoryFields,geteipcreditlinesummary,Failed
