﻿S.No,TestCase_Name,RequestFile,Status
TC_01,getBasicAccountDetails,getBasicAccountDetails,Passed
TC_01,getBasicAccountDetails,getBasicAccountDetails,Failed
TC_01,getSubscrviberServiceList,getSubscrviberServiceList,Passed
1,getSubscrviberServiceList,getSubscrviberServiceList,Passed
1,getSubscrviberServiceList,getSubscrviberServiceList,Passed
