<?xml version="1.0" ?>


<!-- TestCase Results Document created by LISA Test Editor -->
<!-- On: Fri Jul 15 17:53:13 IST 2016 -->


<Results name="getClaimInfo">


    <Result node="SERVICE_HIT">
      <content type="xstream" charset="UTF-8"><![CDATA[<com.itko.lisa.gui.XMLResultsCache>
  <Sxml>&lt;?xml version=&apos;1.0&apos; encoding=&apos;UTF-8&apos;?&gt;&lt;S:Envelope xmlns:S=&quot;http://schemas.xmlsoap.org/soap/envelope/&quot;&gt;&lt;S:Body&gt;&lt;manageDocumentResponse xmlns=&quot;http://retail.tmobile.com/sdo&quot;&gt;&lt;header&gt;&lt;partnerId&gt;ACUI&lt;/partnerId&gt;&lt;requestId&gt;1598877189735140750&lt;/requestId&gt;&lt;partnerSessionId&gt;dosZEQu7EuCSsBUpvqGGMYbX4jt4tONeqNs20l83W0mKgT6qPrHu&lt;/partnerSessionId&gt;&lt;partnerTransactionId&gt;1598877189735140685&lt;/partnerTransactionId&gt;&lt;partnerTimestamp&gt;2016-06-29T05:09:47.268-07:00&lt;/partnerTimestamp&gt;&lt;application&gt;ACUI&lt;/application&gt;&lt;applicationUserId&gt;CARTOCIOH10&lt;/applicationUserId&gt;&lt;channel&gt;RPS&lt;/channel&gt;&lt;targetSystemUserId&gt;2024&lt;/targetSystemUserId&gt;&lt;storeId&gt;9999&lt;/storeId&gt;&lt;dealerCode&gt;0083150&lt;/dealerCode&gt;&lt;rspTransactionId&gt;qatrsps532_QLAB03_RSPDomain_CustomerDocumentService_manageDocument_-15738040596737162&lt;/rspTransactionId&gt;&lt;authenticatedId&gt;tbd&lt;/authenticatedId&gt;&lt;/header&gt;&lt;serviceStatus&gt;&lt;serviceStatusCode&gt;100&lt;/serviceStatusCode&gt;&lt;/serviceStatus&gt;&lt;document&gt;&lt;id&gt;3251c016-d4b9-4c16-9a63-71a236fcfd7a&lt;/id&gt;&lt;documentURL&gt;https://demo.docusign.net/Signing/startinsession.aspx?t=a34c8c82-ac51-4772-9a47-ecf2919ddde4&lt;/documentURL&gt;&lt;/document&gt;&lt;/manageDocumentResponse&gt;&lt;/S:Body&gt;&lt;/S:Envelope&gt;</Sxml>
  <headers>HTTP/1.1 200 OK&#xd;
Server: Apache-Coyote/1.1&#xd;
Date: Thu, 14 Jul 2016 11:40:34 GMT&#xd;
X-Powered-By: Servlet/2.5 JSP/2.1&#xd;
Content-Type: text/xml;charset=utf-8&#xd;
Transfer-Encoding: chunked&#xd;
</headers>
</com.itko.lisa.gui.XMLResultsCache>]]></content>
    </Result>


</Results>
