﻿S.No,TestCase_Name,RequestFile,Status
1,{{OperationName}},getClaimInfosingleAccount,Passed
2,{{OperationName}},getClaimInfoMultipleAccount,Passed
3,{{OperationName}},getClaimInfoMultipleAccount,Passed
4,{{OperationName}},getClaimInfoMultipleAccount,Passed
5,{{OperationName}},getClaimInfoMultipleAccount,Passed
6,{{OperationName}},getClaimInfoMultipleAccount,Passed
7,{{OperationName}},getClaimInfoMultipleAccount,Passed
1,{{OperationName}},getClaimInfosingleAccount,Passed
2,{{OperationName}},getClaimInfoMultipleAccount,Passed
3,{{OperationName}},getClaimInfoMultipleAccount,Passed
4,{{OperationName}},getClaimInfoMultipleAccount,Passed
5,{{OperationName}},getClaimInfoMultipleAccount,Passed
6,{{OperationName}},getClaimInfoMultipleAccount,Passed
7,{{OperationName}},getClaimInfoMultipleAccount,Passed
1,getClaimInfo,getClaimInfosingleAccount,Passed
1,getClaimInfo,getClaimInfosingleAccount,Passed
1,getClaimInfo,getClaimInfosingleAccount,Passed
2,getClaimInfo,getClaimInfoMultipleAccount,Passed
3,getClaimInfo,getClaimInfoMultipleAccount,Passed
4,getClaimInfo,getClaimInfoMultipleAccount,Passed
5,getClaimInfo,getClaimInfoMultipleAccount,Passed
6,getClaimInfo,getClaimInfoMultipleAccount,Passed
7,getClaimInfo,getClaimInfoMultipleAccount,Passed
1,getClaimInfo,getClaimInfosingleAccount,{{testresult}}
1,getClaimInfo,getClaimInfosingleAccount,Passed
