<soap:Envelope xmlns:soap="http://schemas.xmlsoap.org/soap/envelope/">
  <soap:Body>
    <ns4:getOptOutReasonsRequest xmlns:ns4="http://esp.t-mobile.com/mo">
      <ns2:header xmlns:ns2="http://esp.t-mobile.com/2012/eo">
        <ns2:sender>
          <ns2:senderId>{{Input_senderId}}</ns2:senderId>
          <ns2:channelId>{{Input_channelId}}</ns2:channelId>
          <ns2:applicationId>ACUI</ns2:applicationId>
          <ns2:applicationUserId>CARTOCIOH10</ns2:applicationUserId>
          <ns2:sessionId>dosZEQu7EuCSsBUpvqGGMYbX4jt4tONeqNs20l83W0mKgT6qPrHu</ns2:sessionId>
          <ns2:workflowId>1598877189735140685</ns2:workflowId>
          <ns2:activityId>1598877189735140688</ns2:activityId>
          <ns2:timestamp>2016-06-29T05:06:50.831-07:00</ns2:timestamp>
          <ns2:storeId>9999</ns2:storeId>
          <ns2:dealerCode>0083150</ns2:dealerCode>
        </ns2:sender>
        <ns2:target>
          <ns2:targetSystemId>
            <ns2:systemId>{{Input_systemId}}</ns2:systemId>
            <ns2:userId>{{Input_userId}}</ns2:userId>
          </ns2:targetSystemId>
        </ns2:target>
      </ns2:header>
    </ns4:getOptOutReasonsRequest>
  </soap:Body>
</soap:Envelope>